{
    "name": "SuiteCommerce Site Builder - Elbrus",
    "version": "2.0",
    "buildToolsVersion": "1.3.0",
    "folders": {
        "modules": "Modules",
        "suitecommerceModules": "Modules/suitecommerce",
        "customizationsModules": "Modules/Customizations",
        "thirdPartyModules": "Modules/third_parties",
        "distribution": "LocalDistribution",
        "deploy": "DeployDistribution"
    },
    "modules": {
        "suitecommerce/Account": "2.3.0",
        "suitecommerce/Address": "2.4.0",
        "suitecommerce/AjaxRequestsKiller": "2.0.2",
        "suitecommerce/ApplicationSkeleton": "2.4.0",
        "suitecommerce/Automation.Core": "1.0.0",
        "suitecommerce/Automation.Precondition": "1.0.0",
        "suitecommerce/Automation.RecordsAPI": "1.0.0",
        "suitecommerce/Backbone.CollectionView": "1.2.0",
        "suitecommerce/Backbone.CompositeView": "2.0.0",
        "suitecommerce/Backbone.FormView": "1.2.0",
        "suitecommerce/BackboneExtras": "2.4.0",
        "suitecommerce/BaseSassStyleguide": "1.0.2",
        "suitecommerce/BaseSassStyles": "2.0.0",
        "suitecommerce/BootstrapExtras": "2.1.0",
        "suitecommerce/BrontoIntegration": "1.1.0",
        "suitecommerce/Cart": "4.0.0",
        "suitecommerce/Case": "2.3.0",
        "suitecommerce/Categories": "3.0.1",
        "suitecommerce/CheckoutApplication": "2.3.0",
        "suitecommerce/CheckoutSkipLogin": "2.1.0",
        "suitecommerce/CMSadapter": "3.1.0",
        "suitecommerce/Configuration": "1.1.0",
        "suitecommerce/CreditCard": "2.4.0",
        "suitecommerce/CustomFields": "1.0.0",
        "suitecommerce/ErrorManagement": "2.4.0",
        "suitecommerce/ExternalPayment": "1.1.0",
        "suitecommerce/Footer.SB": "1.0.0",
        "suitecommerce/GlobalImages": "1.0.2",
        "suitecommerce/GlobalViews": "1.4.0",
        "suitecommerce/GoogleAdWords": "2.3.0",
        "suitecommerce/GoogleUniversalAnalytics": "2.3.0",
        "suitecommerce/HandlebarsExtras": "1.2.0",
        "suitecommerce/Header.SB": "1.0.0",
        "suitecommerce/ImageNotAvailable": "2.1.0",
        "suitecommerce/Item": "1.0.0",
        "suitecommerce/jQueryExtras": "2.3.0",
        "suitecommerce/jQuery.Deferred": "1.0.0",
        "suitecommerce/ListHeader": "2.3.0",
        "suitecommerce/LiveOrder": "4.0.0",
        "suitecommerce/Location.SCA": "1.1.0",
        "suitecommerce/LoginRegister": "2.3.0",
        "suitecommerce/Main": "1.1.4",
        "suitecommerce/MenuTree": "2.1.2",
        "suitecommerce/MyAccountApplication": "3.1.0",
        "suitecommerce/MyAccountApplication.SCSB": "1.1.0",
        "suitecommerce/NativesExtras": "1.2.0",
        "suitecommerce/NavigationHelper": "2.1.0",
        "suitecommerce/OrderHistory": "5.0.0",
        "suitecommerce/OrderWizard": "3.0.0",
        "suitecommerce/OrderWizard.Module.Address": "2.2.1",
        "suitecommerce/OrderWizard.Module.CartItems": "2.0.0",
        "suitecommerce/OrderWizard.Module.CartSummary": "4.0.0",
        "suitecommerce/OrderWizard.Module.Confirmation": "3.0.0",
        "suitecommerce/OrderWizard.Module.MultiShipTo.EnableLink": "3.0.0",
        "suitecommerce/OrderWizard.Module.NonShippableItems": "3.0.0",
        "suitecommerce/OrderWizard.Module.Package": "3.0.0",
        "suitecommerce/OrderWizard.Module.PaymentMethod": "4.0.0",
        "suitecommerce/OrderWizard.Module.PromocodeForm": "2.0.1",
        "suitecommerce/OrderWizard.Module.Register": "2.1.1",
        "suitecommerce/OrderWizard.Module.Shipmethod": "3.0.0",
        "suitecommerce/OrderWizard.Module.SubmitButton": "1.1.1",
        "suitecommerce/OrderWizard.Module.TermsAndConditions": "2.1.1",
        "suitecommerce/OrderWizard.Module.Title": "1.1.1",
        "suitecommerce/Overview": "1.1.2",
        "suitecommerce/PluginContainer": "2.2.0",
        "suitecommerce/Profile": "3.0.0",
        "suitecommerce/Product": "1.0.0",
        "suitecommerce/ProductLine": "1.0.0",
        "suitecommerce/ProductViews": "1.0.0",
        "suitecommerce/Quote": "4.0.0",
        "suitecommerce/Receipt": "4.0.0",
        "suitecommerce/RecentlyViewedItems": "2.3.0",
        "suitecommerce/RecordViews": "2.0.0",
        "suitecommerce/ReleaseMetadata": "1.1.0",
        "suitecommerce/ReorderItems": "3.0.0",
        "suitecommerce/Responsive": "1.1.0",
        "suitecommerce/ReturnAuthorization": "4.0.0",
        "suitecommerce/SC": "1.0.0",
        "suitecommerce/SC.Utils": "1.0.0",
        "suitecommerce/SC.Application": "1.0.0",
        "suitecommerce/SCSB": "1.3.0",
        "suitecommerce/Session": "2.2.2",
        "suitecommerce/SiteSettings": "3.0.0",
        "suitecommerce/SspLibraries": "4.0.0",
        "suitecommerce/StoreItem": "2.0.3",
        "suitecommerce/Tracker": "3.0.0",
        "suitecommerce/Transaction.Line.Views": "1.0.0",
        "suitecommerce/TrackingServices": "2.0.1",
        "suitecommerce/Transaction": "1.3.0",
        "suitecommerce/UnitTestHelper": "2.1.1",
        "suitecommerce/UrlHelper": "2.1.1",
        "suitecommerce/Utilities": "2.2.1",
        "suitecommerce/Wizard": "2.3.0",
        "Customizations/Licenses": "2.3.0",
        "third_parties/almond": "0.3.0",
        "third_parties/backbone.js": "1.1.2-custom",
        "third_parties/backbone.validation": "0.9.1-custom",
        "third_parties/backbone.stickit": "0.8.0",
        "third_parties/bignumber": "1.5.0",
        "third_parties/blanket": "1.1.5",
        "third_parties/bootstrap-datepicker": "1.3.1",
        "third_parties/font-awesome": "4.2.0-custom",
        "third_parties/handlebars": "2.0.0",
        "third_parties/html5shiv": "3.7.2",
        "third_parties/respond": "1.4.2-custom",
        "third_parties/jasmine2-typechecking-matchers": "1.1.0",
        "third_parties/jasmine-ajax": "2.0.2",
        "third_parties/jasmine": "2.3.2",
        "third_parties/jQuery-bxslider": "4.1.2-custom",
        "third_parties/jQuery-Cookie": "1.4.1",
        "third_parties/jQuery-Zoom": "1.7.13",
        "third_parties/jQuery": "1.11.1-custom",
        "third_parties/json2": "2.0.1",
        "third_parties/require.js": "2.1.15",
        "third_parties/twitter-bootstrap-sass": "3.3.1",
        "third_parties/twitter-typeahead": "0.10.5",
        "third_parties/underscore.js": "1.7.0"
    },
    "tasksConfig": {
        "local": {
            "http": {
                "port": 7777
            },
            "https": {
                "port": 7778,
                "key": "./key.pem",
                "cert": "./cert.pem"
            },
            "lessSourcemap": false,
            "jsRequire": true
        },
        "configuration": {
            "validate": true
        },
        "javascript": [
            {
                "entryPoint": "SC.MyAccount.Starter",
                "exportFile": "myaccount.js",
                "dependencies": [
                    "Backbone.View.Plugins",
                    "jQuery.html",
                    "Location",
                    "MyAccount.Profile",
                    "Overview",
                    "Item.Collection",
                    "Item",
                    "ProductViews",
                    "Transaction.Line.Views",
                    "Cart",
                    "Address",
                    "CreditCard",
                    "ExternalPayment",
                    "OrderHistory",
                    "ReturnAuthorization",
                    "ReorderItems",
                    "GoogleUniversalAnalytics",
                    "Receipt",
                    "NavigationHelper",
                    "NavigationHelper.Plugins.Standard",
                    "NavigationHelper.Plugins.DataTouchPoint",
                    "NavigationHelper.Plugins.Modals",
                    "AjaxRequestsKiller",
                    "ErrorManagement",
                    "Quote",
                    "Case",
                    "license",     
                    "BrontoIntegration"
                ],
                "amdclean": true,
                "amdConfig": {
                    "paths": {
                        "jQuery": "jquery-1.11.1.custom",
                        "jasmine-ajax": "mock-ajax",
                        "Backbone": "backbone.custom",
                        "Backbone.Validation": "backbone-validation",
                        "jQuery.bxSlider": "jquery.bxslider.custom",
                        "Handlebars": "handlebars.runtime-v2.0.0",
                        "typeahead": "typeahead.bundle"
                    },
                    "shim": {
                        "jQuery": {
                            "exports": "jQuery"
                        },
                        "json2": {
                            "exports": "JSON"
                        },
                        "jquery.zoom": {
                            "deps": [
                                "jQuery"
                            ]
                        },
                        "jQuery.bxSlider": {
                            "deps": [
                                "jQuery"
                            ]
                        },
                        "bootstrap": {
                            "deps": [
                                "jQuery"
                            ]
                        },
                        "bootstrap-datepicker": {
                            "deps": [
                                "jQuery",
                                "bootstrap"
                            ]
                        },
                        "Backbone.Validation": {
                            "deps": [
                                "Backbone"
                            ]
                        },
                        "typeahead": {
                            "deps": [
                                "jQuery"
                            ]
                        }
                    },
                    "map": {
                        "jquery.cookie": {
                            "jquery": "jQuery"
                        }
                    },
                    "findNestedDependencies": true
                }
            },
            {
                "entryPoint": "SC.Checkout.Starter",
                "exportFile": "checkout.js",
                "dependencies": [
                    "Backbone.View.Plugins",
                    "jQuery.html",
                    "Checkout.Profile",
                    "Cart",
                    "Item",
                    "Item.Collection",
                    "ProductViews",
                    "Transaction.Line.Views",
                    "LoginRegister",
                    "CreditCard",
                    "ExternalPayment",
                    "Address",
                    "CustomFields",
                    "OrderWizard",
                    "NavigationHelper",
                    "NavigationHelper.Plugins.Standard",
                    "NavigationHelper.Plugins.DataTouchPoint",
                    "NavigationHelper.Plugins.Modals",
                    "AjaxRequestsKiller",
                    "ErrorManagement",
                    "GoogleUniversalAnalytics",
                    "GoogleAdWords",
                    "CheckoutSkipLogin",
                    "ImageNotAvailable",
                    "Case",
                    "license",
                    "BrontoIntegration"

                ],
                "amdclean": true,
                "amdConfig": {
                    "paths": {
                        "jQuery": "jquery-1.11.1.custom",
                        "jasmine-ajax": "mock-ajax",
                        "Backbone": "backbone.custom",
                        "Backbone.Validation": "backbone-validation",
                        "jQuery.bxSlider": "jquery.bxslider.custom",
                        "Handlebars": "handlebars.runtime-v2.0.0",
                        "typeahead": "typeahead.bundle"
                    },
                    "shim": {
                        "jQuery": {
                            "exports": "jQuery"
                        },
                        "json2": {
                            "exports": "JSON"
                        },
                        "jquery.zoom": {
                            "deps": [
                                "jQuery"
                            ]
                        },
                        "jQuery.bxSlider": {
                            "deps": [
                                "jQuery"
                            ]
                        },
                        "bootstrap": {
                            "deps": [
                                "jQuery"
                            ]
                        },
                        "bootstrap-datepicker": {
                            "deps": [
                                "jQuery",
                                "bootstrap"
                            ]
                        },
                        "Backbone.Validation": {
                            "deps": [
                                "Backbone"
                            ]
                        },
                        "typeahead": {
                            "deps": [
                                "jQuery"
                            ]
                        }
                    },
                    "map": {
                        "jquery.cookie": {
                            "jquery": "jQuery"
                        }
                    },
                    "findNestedDependencies": true
                }
            }
        ],
        "ssp-libraries": {
            "entryPoint": "SCSB",
            "dependencies": [
                "Account.ForgotPassword.ServiceController",
                "Account.Login.ServiceController",
                "Account.Register.ServiceController",
                "Account.RegisterAsGuest.ServiceController",
                "Account.ResetPassword.ServiceController",
                "Address.ServiceController",
                "Case.Fields.ServiceController",
                "Case.ServiceController",
                "Categories.ServiceController",
                "CreditCard.ServiceController",
                "LiveOrder.GiftCertificate.ServiceController",
                "LiveOrder.Line.ServiceController",
                "LiveOrder.ServiceController",
                "ReorderItems.ServiceController",
                "OrderHistory.ServiceController",
                "Profile.ServiceController",
                "SiteSettings.ServiceController",
                "Receipt.ServiceController",
                "ReturnAuthorization.ServiceController",
                "Transaction.ServiceController",
                "Location.ServiceController",
                "ExternalPayment.Model",
                "Quote.ServiceController",
                "SC.BaseComponent",
                "Cart.Component"
            ],
            "exportFile": "ssp_libraries.js",
            "amdConfig": {
                "paths": {
                    "Backbone.Validation": "backbone-validation.server.custom"
                },
                "shim": {
                    "Backbone.Validation": {
                        "exports": "Backbone.Validation"
                    }
                }
            }
        },
        "deploy": {
            "scriptId": "customscript_ns_sbe_deployer_elbrus",
            "deployId": "customdeploy_ns_sbe_deployer_elbrus",
            "publicList": [
                "services",
                "javascript",
                "img",
                "css",
                "css_ie",
                "fonts",
                "font-awesome",
                "font-awesome/custom",
                "languages"
            ],
            "backup": true
        },
        "sass": {
            "ignorableClasses": {
                "application": [
                    "alert",
                    "collapse",
                    "collapsed",
                    "control",
                    "control-group",
                    "country",
                    "error",
                    "fade",
                    "form-inline",
                    "hide",
                    "hidden",
                    "in",
                    "quantity-",
                    "lg2sm-first",
                    "middle-fold",
                    "lg2sm",
                    "md2sm",
                    "muted",
                    "sc-highlighted",
                    "stock",
                    "update-internalid-",
                    "content-banner",
                    "active",
                    "banner-content-top",
                    "banner-section-top",
                    "banner-section-bottom",
                    "banner-footer",
                    "banner-header-top",
                    "banner-header-bottom",
                    "banner-image-top",
                    "banner-image-bottom",
                    "banner-content-bottom",
                    "banner-details-bottom",
                    "disabled",
                    "white-border",
                    "uncollapsible",
                    "option-active",
                    "form-actions",
                    "alert-",
                    "tranid",
                    "bxslider",
                    "center-block",
                    "is-required",
                    "modal-dialog",
                    "banner-breadcrumb-top",
                    "banner-breadcrumb-bottom",
                    "loading",
                    "highlight",
                    "alert-error",
                    "contact_info",
                    "typeahead",
                    "typeahead-image",
                    "wizard-step-navigation-divider-",
                    "content",
                    "item-",
                    "highlight",
                    "menu-tree-node-submenu-level-",
                    "selected",
                    "-controls-group",
                    "pac-container"
                ],
                "automation": [
                    "cart-item-actions-item-list-actionable-edit-content-remove"
                ]
            },
            "ignorableSelector": [
                "data-pusher=\"sc-pushable-md\"",
                "data-type=\"sc-pusher\"",
                "data-action=\"sc-pushing\"",
                "data-pusher=\"sc-pushable-xs\"",
                "data-validation-error=\"block\"",
                "type=number",
                "disabled"
            ],
            "ignorableTemplates": [
                "header.tpl",
                "header_simplified.tpl",
                "footer.tpl",
                "footer_simplified.tpl"
            ],
            "applications": [
                {
                    "name": "MyAccount",
                    "exportFile": "myaccount.css",
                    "prefixAllWith": "#main",
                    "dependencies": [
                        {
                            "module": "font-awesome",
                            "neverPrefix": true,
                            "include": [
                                "font-awesome"
                            ]
                        },
                        {
                            "module": "twitter-bootstrap-sass",
                            "include": [
                                "variables"
                            ]
                        },
                        {
                            "module": "BaseSassStyles",
                            "include": [
                                "main-variables"
                            ]
                        },
                        {
                            "module": "twitter-bootstrap-sass",
                            "include": [
                                "mixins",
                                "normalize",
                                "print",
                                "grid",
                                "tables",
                                "buttons",
                                "component-animations",
                                "dropdowns",
                                "button-groups",
                                "input-groups",
                                "modals",
                                "popovers",
                                "progress-bars",
                                "tooltip",
                                "utilities"
                            ]
                        },
                        {
                            "module": "BaseSassStyles",
                            "include": [
                                "main-atoms",
                                "main-molecules",
                                "bootstrap-overrides"
                            ]
                        },
                        {
                            "module": "twitter-bootstrap-sass",
                            "neverPrefix": true,
                            "include": [
                                "variables",
                                "mixins"
                            ]
                        },
                        {
                            "module": "BaseSassStyles",
                            "neverPrefix": true,
                            "include": [
                                "main-variables",
                                "bootstrap-overrides",
                                "molecules/datepicker"
                            ]
                        },
                        {
                            "module": "MyAccountApplication",
                            "include": [
                                "myaccount-layout-sb.scss"
                            ]
                        },
                        "Address",
                        "Backbone.CollectionView",
                        "BackboneExtras",
                        "Case",
                        "Cart",
                        "CreditCard",
                        "ErrorManagement",
                        "GlobalViews",
                        "Transaction.Line.Views",
                        "ProductViews",
                        "ProductLine",
                        "ListHeader",
                        "MenuTree",
                        "OrderHistory",
                        "Overview",
                        "Profile",
                        "Quote",
                        "Receipt",
                        "ReorderItems",
                        "RecordViews",
                        "ReturnAuthorization"
                    ]
                },
                {
                    "name": "Checkout",
                    "exportFile": "checkout.css",
                    "prefixAllWith": "#main",
                    "dependencies": [
                        {
                            "module": "font-awesome",
                            "neverPrefix": true,
                            "include": [
                                "font-awesome"
                            ]
                        },
                        {
                            "module": "twitter-bootstrap-sass",
                            "neverPrefix": true,
                            "include": [
                                "variables",
                                "mixins",
                                "normalize",
                                "print",
                                "grid",
                                "tables",
                                "buttons",
                                "component-animations",
                                "dropdowns",
                                "button-groups",
                                "input-groups",
                                "modals",
                                "popovers",
                                "progress-bars",
                                "tooltip",
                                "utilities"
                            ]
                        },
                        {
                            "module": "BaseSassStyles",
                            "neverPrefix": true,
                            "include": [
                                "main-variables",
                                "main-atoms",
                                "main-molecules",
                                "bootstrap-overrides",
                                "molecules/datepicker"
                            ]
                        },
                        "CheckoutApplication",
                        "Backbone.CollectionView",
                        "BackboneExtras",
                        "Address",
                        "ReorderItems",
                        "RecordViews",
                        "Cart",
                        "CreditCard",
                        "ErrorManagement",
                        "GlobalViews",
                        "Transaction.Line.Views",
                        "LoginRegister",
                        {
                            "module": "OrderHistory",
                            "include": [
                                "order-history-list-tracking-number"
                            ]
                        },
                        "OrderWizard",
                        "OrderWizard.Module.Address",
                        "OrderWizard.Module.Register",
                        "OrderWizard.Module.Confirmation",
                        "OrderWizard.Module.CartSummary",
                        "OrderWizard.Module.CartItems",
                        "OrderWizard.Module.PromocodeForm",
                        "OrderWizard.Module.NonShippableItems",
                        "OrderWizard.Module.PaymentMethod",
                        "ProductViews",
                        "ProductLine",
                        "OrderWizard.Module.Package",
                        "OrderWizard.Module.Shipmethod",
                        "OrderWizard.Module.SubmitButton",
                        "OrderWizard.Module.TermsAndConditions",
                        "OrderWizard.Module.Title",
                        "OrderWizard.Module.MultiShipTo.EnableLink",
                        "Wizard"
                    ]
                }
            ]
        }
    },
    "unbuild": {
        "enforceUnitTests": false
    },
    "license": {
        "text": "\n\t© 2017 NetSuite Inc.\n\tUser may not copy, modify, distribute, or re-bundle or otherwise make available this code;\n\tprovided, however, if you are an authorized user with a NetSuite account or log-in, you\n\tmay use this code subject to the terms that govern your access and use.\n"
    },
    "releaseMetadata": "../../distros/Release/SCSBE_Elbrus.xml"
}
